{
    "KPlugin": {
        "Authors": [
            {
                "Email": "mart@kde.org",
                "Name": "Marco Martin",
                "Name[az]": "Marco Martin",
                "Name[bg]": "Marco Martin",
                "Name[ca@valencia]": "Marco Martin",
                "Name[ca]": "Marco Martin",
                "Name[cs]": "Marco Martin",
                "Name[en_GB]": "Marco Martin",
                "Name[es]": "Marco Martin",
                "Name[eu]": "Marco Martin",
                "Name[fi]": "Marco Martin",
                "Name[fr]": "Marco Martin",
                "Name[ia]": "Marco Martin",
                "Name[id]": "Marco Martin",
                "Name[it]": "Marco Martin",
                "Name[ka]": "Marco Martin",
                "Name[ko]": "Marco Martin",
                "Name[nl]": "Marco Martin",
                "Name[nn]": "Marco Martin",
                "Name[pl]": "Marco Martin",
                "Name[pt]": "Marco Martin",
                "Name[pt_BR]": "Marco Martin",
                "Name[ru]": "Marco Martin",
                "Name[sl]": "Marco Martin",
                "Name[sv]": "Marco Martin",
                "Name[tr]": "Marco Martin",
                "Name[uk]": "Marco Martin",
                "Name[vi]": "Marco Martin",
                "Name[x-test]": "xxMarco Martinxx",
                "Name[zh_CN]": "Marco Martin"
            }
        ],
        "Category": "Miscellaneous",
        "Description": "",
        "Icon": "package_toys",
        "Id": "org.kde.examples.compactrepresentation",
        "License": "GPL",
        "Name": "hello world",
        "Name[az]": "salam dünya",
        "Name[bg]": "hello world",
        "Name[ca@valencia]": "hola món",
        "Name[ca]": "hola món",
        "Name[cs]": "Hello World",
        "Name[en_GB]": "hello world",
        "Name[es]": "hola mundo",
        "Name[eu]": "kaixo mundua",
        "Name[fi]": "hei maailma",
        "Name[fr]": "Bonjour à tout le monde",
        "Name[ia]": "Salute mundo",
        "Name[id]": "hello world",
        "Name[it]": "ciao mondo",
        "Name[ka]": "გამარჯობა კინო",
        "Name[ko]": "hello world",
        "Name[nl]": "hallo wereld",
        "Name[nn]": "hei, verda",
        "Name[pl]": "witaj świecie",
        "Name[pt]": "olá mundo",
        "Name[pt_BR]": "olá mundo",
        "Name[ru]": "привет мир",
        "Name[sl]": "pozdravljen svet",
        "Name[sv]": "hello world",
        "Name[ta]": "வணக்கம், உலகமே",
        "Name[tr]": "merhaba dünya",
        "Name[uk]": "Привіт, світе",
        "Name[vi]": "chào thế giới",
        "Name[x-test]": "xxhello worldxx",
        "Name[zh_CN]": "hello world",
        "ServiceTypes": [
            "Plasma/Applet"
        ],
        "Version": "",
        "Website": ""
    },
    "Keywords": "",
    "X-KDE-ParentApp": "",
    "X-Plasma-API": "declarativeappletscript",
    "X-Plasma-MainScript": "ui/main.qml"
}
