{
    "KPlugin": {
        "Authors": [
            {
                "Email": "mart@kde.org",
                "Name": "Marco Martin",
                "Name[az]": "Marco Martin",
                "Name[bg]": "Marco Martin",
                "Name[ca@valencia]": "Marco Martin",
                "Name[ca]": "Marco Martin",
                "Name[cs]": "Marco Martin",
                "Name[en_GB]": "Marco Martin",
                "Name[es]": "Marco Martin",
                "Name[eu]": "Marco Martin",
                "Name[fi]": "Marco Martin",
                "Name[fr]": "Marco Martin",
                "Name[ia]": "Marco Martin",
                "Name[id]": "Marco Martin",
                "Name[it]": "Marco Martin",
                "Name[ka]": "Marco Martin",
                "Name[ko]": "Marco Martin",
                "Name[nl]": "Marco Martin",
                "Name[nn]": "Marco Martin",
                "Name[pl]": "Marco Martin",
                "Name[pt]": "Marco Martin",
                "Name[pt_BR]": "Marco Martin",
                "Name[ru]": "Marco Martin",
                "Name[sl]": "Marco Martin",
                "Name[sv]": "Marco Martin",
                "Name[tr]": "Marco Martin",
                "Name[uk]": "Marco Martin",
                "Name[vi]": "Marco Martin",
                "Name[x-test]": "xxMarco Martinxx",
                "Name[zh_CN]": "Marco Martin"
            }
        ],
        "Category": "Miscellaneous",
        "Description": "Example applet that shows how to use Models embedded in DataEngines",
        "Description[az]": "Plasma verilənlər mənbəyində quraşdırılmış modellərin işinin nümayişi üçün vidjet nümunələri",
        "Description[bg]": "Примерен аплет, който показва как се използват модели, вградени в DataEngines",
        "Description[ca@valencia]": "Miniaplicació de prova que mostra com utilitzar Models incrustats en «DataEngines»",
        "Description[ca]": "Miniaplicació de prova que mostra com usar Models incrustats en «DataEngines»",
        "Description[en_GB]": "Example applet that shows how to use Models embedded in DataEngines",
        "Description[es]": "Miniaplicación de ejemplo que muestra cómo usar modelos integrados en motores de datos",
        "Description[eu]": "Adibide aplikaziotxoa, «DataEngine»etan kapsulatutako modeloak nola erabili erakusten duena",
        "Description[fi]": "Esimerkkisovelma, jonka näyttää miten käyttää tietomoottoreihin upotettuja malleja",
        "Description[fr]": "Exemple d'applet montrant comment utiliser les modèles intégrés des moteurs de données",
        "Description[ia]": "Applet de exemplo que monstra como usar Models (modellos)  insertate in DataEngines (Motores de datos)",
        "Description[id]": "Contoh applet yang menunjukkan cara menggunakan Model yang disematkan di DataEngine",
        "Description[it]": "Applet di esempio che mostra come utilizzare i modelli integrati nei motori di dati",
        "Description[ko]": "데이터 엔진에 임베드된 모델 사용법 시연 애플릿",
        "Description[nl]": "Voorbeeld van applet dat toont hoe modellen ingebed in gegevensengines zijn te gebruiken",
        "Description[nn]": "Eksempel-applet som viser korleis bruka «Models» innebygd i «DataEngines»",
        "Description[pl]": "Przykładowy aplet pokazujący sposób używania modeli osadzonych w silnikach danych",
        "Description[pt]": "Elemento de exemplo que mostra como usar os Models incorporados nos DataEngines",
        "Description[sl]": "Primer apleta, ki kaže kako uporabljati modele vgrajene v podatkovne stroje",
        "Description[sv]": "Miniprogramexempel som visar hur modeller används inbäddade i datagränssnitt",
        "Description[tr]": "DataEngines içinde gömülü modellerin nice kullanılacağını gösteren örnek uygulama",
        "Description[uk]": "Приклад аплету, який демонструє використання моделей, вбудованих до рушіїв даних",
        "Description[vi]": "Tiểu ứng dụng ví dụ cho thấy cách dùng các Model trong DataEngine",
        "Description[x-test]": "xxExample applet that shows how to use Models embedded in DataEnginesxx",
        "Description[zh_CN]": "展示如何使用数据引擎内嵌的模型的示例小程序",
        "Icon": "",
        "Id": "org.kde.example.dataenginemodel",
        "License": "GPL",
        "Name": "Dataengine model",
        "Name[az]": "Verilənlər mənbəyi modeli",
        "Name[bg]": "Модел на Dataengine",
        "Name[ca@valencia]": "Model de «Dataengine»",
        "Name[ca]": "Model de «Dataengine»",
        "Name[en_GB]": "Dataengine model",
        "Name[es]": "Modelo del motor de datos",
        "Name[eu]": "Datu-motor eredua",
        "Name[fi]": "Tietomoottorimalli",
        "Name[fr]": "Modèle de moteur de données",
        "Name[ia]": "Modello de Dataengine (Motor de datos)",
        "Name[id]": "Model Dataengine",
        "Name[it]": "Modello del motore di dati",
        "Name[ka]": "მონაცემების ძრავის მოდელი",
        "Name[ko]": "데이터 엔진 모델",
        "Name[nl]": "Model van gegevensengine",
        "Name[nn]": "Datamotor-modell",
        "Name[pl]": "Model silnika danych",
        "Name[pt]": "Modelo de DataEngine",
        "Name[pt_BR]": "Modelo de mecanismo de dados",
        "Name[ru]": "Источник данных Plasma",
        "Name[sl]": "Model podatkovnega stroja",
        "Name[sv]": "Datagränssnittsmodell",
        "Name[tr]": "Veri motoru modeli",
        "Name[uk]": "Модель рушія даних",
        "Name[vi]": "Model Dataengine",
        "Name[x-test]": "xxDataengine modelxx",
        "Name[zh_CN]": "数据引擎模型",
        "ServiceTypes": [
            "Plasma/Applet"
        ],
        "Version": "",
        "Website": ""
    },
    "Keywords": "",
    "X-KDE-ParentApp": "",
    "X-Plasma-API": "declarativeappletscript",
    "X-Plasma-MainScript": "ui/main.qml"
}
